<?xml version="1.0" encoding="utf-8"?>
<!-- Generator: Adobe Illustrator 17.1.0, SVG Export Plug-In . SVG Version: 6.00 Build 0)  -->
<!DOCTYPE svg PUBLIC "-//W3C//DTD SVG 1.1//EN" "http://www.w3.org/Graphics/SVG/1.1/DTD/svg11.dtd">
<svg version="1.1" id="Layer_1" xmlns="http://www.w3.org/2000/svg" xmlns:xlink="http://www.w3.org/1999/xlink" x="0px" y="0px"
	 viewBox="1.5 23.7 47.1 2.5" enable-background="new 1.5 23.7 47.1 2.5" xml:space="preserve">
<g>
	<path fill="#231F20" d="M2.6,23.8l-0.1,0.3c-0.1,0-0.2,0-0.2,0c0,0,0,0.1,0,0.3v0v1.2c0,0,0,0.1,0,0.1s0,0.1,0,0.1c0,0,0.1,0,0.1,0
		c0,0,0.1,0,0.1,0c0.2,0,0.3,0,0.3-0.1c0.1-0.1,0.1-0.2,0.1-0.4l0.3-0.1v0.9H1.5l0.1-0.3c0.1,0,0.1,0,0.2,0c0,0,0-0.1,0-0.2v-0.1
		l0,0v-1.2c0-0.2,0-0.2,0-0.3c0,0-0.1,0-0.2,0l0.1-0.3L2.6,23.8L2.6,23.8z"/>
	<path fill="#231F20" d="M6.9,24.7l0.2,0.6c0,0,0,0.1,0,0.2C7.3,25.8,7.4,26,7.5,26l-0.1,0.3h-1L6.5,26c0.1,0,0.1,0,0.2,0
		c0,0,0-0.1,0-0.1c0,0,0,0,0-0.1c0,0,0-0.1,0-0.1l-0.1-0.2H5.9l0,0.1c0,0,0,0.1,0,0.1c0,0,0,0.1,0,0.1c0,0.1,0,0.1,0.1,0.2
		c0,0,0.2,0,0.3,0l-0.1,0.3H5.2l0.1-0.3l0,0c0.1,0,0.2-0.2,0.3-0.5c0,0,0-0.1,0-0.1L6,24.4c0-0.1,0.1-0.2,0.1-0.3
		c0-0.1,0.1-0.2,0.1-0.3c0.1,0,0.1,0,0.2,0s0.1,0,0.2-0.1c0.1,0.2,0.1,0.4,0.2,0.5C6.8,24.4,6.8,24.6,6.9,24.7z M6.6,25.1l-0.2-0.7
		l-0.2,0.7H6.6z"/>
	<path fill="#231F20" d="M9.5,26.2l0.1-0.3c0.1,0,0.1,0,0.2,0c0,0,0-0.1,0-0.2v-0.1l0,0v-1.2c0-0.2,0-0.2,0-0.3c0,0-0.1,0-0.2,0h0
		l0.1-0.3c0,0,0,0,0.1,0c0,0,0,0,0.1,0c0.1,0,0.2,0,0.4,0c0.2,0,0.3,0,0.4,0c0.2,0,0.4,0.1,0.6,0.2c0.1,0.1,0.2,0.3,0.2,0.4
		c0,0.1,0,0.2-0.1,0.3c-0.1,0.1-0.2,0.2-0.3,0.2c0.2,0,0.3,0.1,0.4,0.2c0.1,0.1,0.1,0.2,0.1,0.4c0,0.2-0.1,0.4-0.2,0.5
		c-0.2,0.1-0.4,0.2-0.7,0.2c0,0-0.1,0-0.3,0s-0.4,0-0.5,0L9.5,26.2L9.5,26.2z M10.2,24.4v0.3c0,0,0,0,0.1,0c0,0,0.1,0,0.1,0
		c0.1,0,0.2,0,0.3-0.1c0.1-0.1,0.1-0.2,0.1-0.2c0-0.1,0-0.2-0.1-0.2c-0.1,0-0.1-0.1-0.2-0.1c-0.1,0-0.1,0-0.2,0
		C10.2,24.2,10.2,24.2,10.2,24.4L10.2,24.4L10.2,24.4z M10.2,25.4c0,0,0,0.1,0,0.2c0,0.1,0,0.1,0,0.1v0.2c0,0,0.1,0,0.1,0
		s0.1,0,0.1,0c0.1,0,0.2,0,0.3-0.1c0.1-0.1,0.1-0.2,0.1-0.3c0-0.2,0-0.3-0.1-0.3c-0.1-0.1-0.2-0.1-0.4-0.1c0,0,0,0-0.1,0s0,0-0.1,0
		C10.2,25,10.2,25.4,10.2,25.4z"/>
	<path fill="#231F20" d="M14.7,23.8c0.3,0,0.6,0.1,0.8,0.3c0.2,0.2,0.3,0.5,0.3,0.8c0,0.2,0,0.4-0.1,0.6c-0.1,0.2-0.2,0.3-0.4,0.5
		c-0.1,0.1-0.3,0.2-0.4,0.2c-0.1,0-0.3,0.1-0.4,0.1c-0.4,0-0.6-0.1-0.8-0.3s-0.3-0.5-0.3-0.9c0-0.2,0-0.4,0.1-0.6
		c0.1-0.2,0.2-0.3,0.4-0.5c0.1-0.1,0.3-0.2,0.4-0.2C14.4,23.8,14.5,23.8,14.7,23.8z M15.3,25.1c0-0.3-0.1-0.5-0.2-0.7
		c-0.1-0.2-0.3-0.2-0.6-0.2c-0.2,0-0.4,0.1-0.5,0.2c-0.1,0.1-0.2,0.3-0.2,0.6c0,0.3,0.1,0.5,0.2,0.7c0.1,0.2,0.3,0.2,0.6,0.2
		c0.2,0,0.4-0.1,0.5-0.2C15.3,25.5,15.3,25.3,15.3,25.1z"/>
	<path fill="#231F20" d="M19.9,25.9l-0.1,0.3h-0.4c0-0.1-0.1-0.2-0.2-0.4c-0.2-0.5-0.4-0.7-0.5-0.7h0c0,0,0,0,0,0v0.6
		c0,0.1,0,0.2,0.1,0.2c0,0,0.1,0.1,0.3,0.1l-0.1,0.3h-1l0.1-0.3c0.1,0,0.1,0,0.2,0c0,0,0-0.1,0-0.2v-0.1l0,0v-1.2c0-0.2,0-0.2,0-0.3
		c0,0-0.1,0-0.2,0l0.1-0.3c0.2,0,0.4,0,0.6,0c0.2,0,0.3,0,0.3,0c0.2,0,0.4,0,0.5,0.2s0.2,0.3,0.2,0.5c0,0.2,0,0.3-0.1,0.4
		c-0.1,0.1-0.2,0.2-0.4,0.2c0.1,0,0.3,0.2,0.5,0.5c0.1,0.1,0.1,0.2,0.2,0.3C19.7,25.8,19.8,25.9,19.9,25.9
		C19.8,25.9,19.8,25.9,19.9,25.9z M18.5,24.4v0.4h0c0.2,0,0.3,0,0.4-0.1c0.1-0.1,0.1-0.2,0.1-0.3c0-0.1,0-0.2-0.1-0.2
		c0,0-0.1-0.1-0.2-0.1c-0.1,0-0.2,0-0.2,0C18.6,24.2,18.5,24.2,18.5,24.4z"/>
	<path fill="#231F20" d="M23.4,24.7l0.2,0.6c0,0,0,0.1,0,0.2c0.1,0.3,0.2,0.5,0.4,0.5l-0.1,0.3h-1l0.1-0.3c0.1,0,0.1,0,0.2,0
		c0,0,0-0.1,0-0.1c0,0,0,0,0-0.1c0,0,0-0.1,0-0.1l-0.1-0.2h-0.7l0,0.1c0,0,0,0.1,0,0.1c0,0,0,0.1,0,0.1c0,0.1,0,0.1,0.1,0.2
		c0,0,0.2,0,0.3,0l-0.1,0.3h-0.9l0.1-0.3l0,0c0.1,0,0.2-0.2,0.3-0.5c0,0,0-0.1,0-0.1l0.3-0.9c0-0.1,0.1-0.2,0.1-0.3
		c0-0.1,0.1-0.2,0.1-0.3c0.1,0,0.1,0,0.2,0s0.1,0,0.2-0.1c0.1,0.2,0.1,0.4,0.2,0.5C23.3,24.4,23.4,24.6,23.4,24.7z M23.1,25.1
		l-0.2-0.7l-0.2,0.7H23.1z"/>
	<path fill="#231F20" d="M27.8,23.8v0.7l-0.4,0.1c0-0.2,0-0.3-0.1-0.4c0-0.1-0.1-0.1-0.3-0.1h0c0,0,0,0.1,0,0.1c0,0,0,0.1,0,0.2v0.1
		v1.1c0,0.2,0,0.3,0.1,0.3c0,0,0.1,0,0.2,0c0,0,0,0,0.1,0c0,0,0,0,0.1,0l-0.1,0.3h-1.2l0.1-0.3c0.1,0,0.2,0,0.2-0.1
		c0,0,0.1-0.1,0.1-0.2v-0.1v-1.1c0-0.1,0-0.1,0-0.2s0-0.1,0-0.2h0c-0.1,0-0.2,0-0.3,0.1c0,0-0.1,0.2-0.1,0.3l-0.3,0.1v-0.8
		L27.8,23.8L27.8,23.8z"/>
	<path fill="#231F20" d="M31.1,23.8c0.3,0,0.6,0.1,0.8,0.3c0.2,0.2,0.3,0.5,0.3,0.8c0,0.2,0,0.4-0.1,0.6c-0.1,0.2-0.2,0.3-0.4,0.5
		c-0.1,0.1-0.2,0.2-0.4,0.2c-0.1,0-0.3,0.1-0.4,0.1c-0.4,0-0.6-0.1-0.8-0.3s-0.3-0.5-0.3-0.9c0-0.2,0-0.4,0.1-0.6
		c0.1-0.2,0.2-0.3,0.4-0.5c0.1-0.1,0.3-0.2,0.4-0.2C30.8,23.8,30.9,23.8,31.1,23.8z M31.7,25.1c0-0.3-0.1-0.5-0.2-0.7
		c-0.1-0.2-0.3-0.2-0.6-0.2c-0.2,0-0.4,0.1-0.5,0.2c-0.1,0.1-0.2,0.3-0.2,0.6c0,0.3,0.1,0.5,0.2,0.7c0.1,0.2,0.3,0.2,0.6,0.2
		c0.2,0,0.4-0.1,0.5-0.2C31.6,25.5,31.7,25.3,31.7,25.1z"/>
	<path fill="#231F20" d="M36.2,25.9l-0.1,0.3h-0.4c0-0.1-0.1-0.2-0.2-0.4c-0.2-0.5-0.4-0.7-0.5-0.7h0c0,0,0,0,0,0v0.6
		c0,0.1,0,0.2,0.1,0.2c0,0,0.1,0.1,0.3,0.1l-0.1,0.3h-1l0.1-0.3c0.1,0,0.1,0,0.2,0c0,0,0-0.1,0-0.2v-0.1l0,0v-1.2c0-0.2,0-0.2,0-0.3
		c0,0-0.1,0-0.2,0l0.1-0.3c0.2,0,0.4,0,0.6,0c0.2,0,0.3,0,0.3,0c0.2,0,0.4,0,0.5,0.2c0.1,0.1,0.2,0.3,0.2,0.5c0,0.2,0,0.3-0.1,0.4
		c-0.1,0.1-0.2,0.2-0.4,0.2c0.1,0,0.3,0.2,0.5,0.5c0.1,0.1,0.1,0.2,0.2,0.3C36.1,25.8,36.2,25.9,36.2,25.9
		C36.1,25.9,36.2,25.9,36.2,25.9z M34.9,24.4v0.4h0c0.2,0,0.3,0,0.4-0.1c0.1-0.1,0.1-0.2,0.1-0.3c0-0.1,0-0.2-0.1-0.2
		c0,0-0.1-0.1-0.2-0.1c-0.1,0-0.2,0-0.2,0C34.9,24.2,34.9,24.2,34.9,24.4z"/>
	<path fill="#231F20" d="M39.2,23.8l-0.1,0.3c-0.1,0-0.1,0-0.2,0c0,0,0,0.1,0,0.2v0.1v1.2c0,0.2,0,0.2,0,0.3c0,0,0.1,0,0.2,0h0
		l-0.1,0.3h-0.9l0.1-0.3c0.1,0,0.1,0,0.2,0c0,0,0-0.1,0-0.2v-0.1l0,0v-1.2c0-0.2,0-0.2,0-0.3c0,0-0.1,0-0.2,0h0l0.1-0.3L39.2,23.8
		L39.2,23.8z"/>
	<path fill="#231F20" d="M42.3,23.8l-0.1,0.3h-0.1c-0.1,0-0.2,0-0.2,0.1c0,0,0,0.2,0,0.3v0.7c0,0.3,0,0.5,0.1,0.6
		c0.1,0.1,0.2,0.2,0.4,0.2c0.1,0,0.2,0,0.2-0.1c0.1,0,0.1-0.1,0.2-0.2c0,0,0-0.1,0-0.2c0-0.1,0-0.2,0-0.3v-0.1v-0.8
		c0-0.1,0-0.2-0.1-0.2c0,0-0.1-0.1-0.2-0.1h0c0,0,0,0,0,0l0.1-0.3h0.9l-0.1,0.3c-0.1,0-0.1,0-0.2,0c0,0,0,0.1,0,0.2v0.1v0.7
		c0,0.2,0,0.4,0,0.5s-0.1,0.2-0.1,0.3c-0.1,0.1-0.2,0.2-0.3,0.2c-0.1,0-0.3,0.1-0.4,0.1c-0.2,0-0.3,0-0.4-0.1
		c-0.1,0-0.2-0.1-0.3-0.2c-0.1-0.1-0.1-0.2-0.2-0.3s0-0.3,0-0.6v-0.7c0-0.2,0-0.2,0-0.3c0,0-0.1,0-0.2,0h0l0.1-0.3L42.3,23.8
		L42.3,23.8z"/>
	<path fill="#231F20" d="M46,25.5L46,25.5c0,0.3,0.1,0.5,0.3,0.5h0l-0.1,0.3h-0.9l0.1-0.3h0c0.1,0,0.1,0,0.2-0.1s0-0.2,0-0.4v-0.8
		c0-0.3,0-0.4-0.1-0.5c0-0.1-0.1-0.1-0.2-0.1l0.1-0.3h0.6c0.1,0.3,0.3,0.6,0.4,0.9c0.1,0.3,0.3,0.6,0.4,0.8c0.1-0.3,0.3-0.6,0.4-0.8
		s0.3-0.6,0.4-0.9h0.7L48.4,24l0,0c-0.1,0-0.1,0-0.2,0.1c0,0.1,0,0.2,0,0.4v0.8c0,0.2,0,0.4,0.1,0.4c0,0.1,0.1,0.1,0.2,0.1l-0.1,0.3
		h-1l0.1-0.3c0.2,0,0.3-0.2,0.3-0.5l0,0v-0.9c-0.1,0.3-0.3,0.5-0.4,0.8c-0.1,0.3-0.3,0.6-0.4,0.9l-0.2,0c-0.1-0.3-0.3-0.7-0.4-0.9
		c-0.1-0.3-0.3-0.6-0.4-0.8V25.5z"/>
</g>
</svg>
