<svg height="512pt" viewBox="0 0 512 512" width="512pt" xmlns="http://www.w3.org/2000/svg">
    <path fill="#f03800" d="m332 467c-8.402344 0-15-6.601562-15-15v-257c0-8.402344 6.597656-15 15-15h60c8.402344 0 15 6.597656 15
    15v120h90c8.402344 0 15 23.597656 15 32v30l-15 15 15 15v60zm0 0"/>
    <path fill="#7c8388" d="m0 467v-105.300781c0-8.101563 6.597656-14.699219 15-14.699219h302c8.402344 0 15 6.597656 15 15v105zm0 0"/>
    <path fill="#575f64" d="m332 362v105h-165v-120h150c8.402344 0 15 6.597656 15 15zm0 0"/>
    <path fill="#32393f" d="m392 512c-33.085938 0-60-26.914062-60-60s26.914062-60 60-60 60 26.914062 60 60-26.914062 60-60 60zm0 0"/>
    <path fill="#cdbfba" d="m392 482c-16.542969 0-30-13.457031-30-30s13.457031-30 30-30 30 13.457031 30 30-13.457031 30-30 30zm0 0"/>
    <path fill="#32393f" d="m392 180h120v167h-120zm0 0"/>
    <path fill="#ffb64c" d="m452 377h60v30h-60zm0 0"/>
    <path fill="#575f64" d="m107 512c-33.085938 0-60-26.914062-60-60s26.914062-60 60-60 60 26.914062 60 60-26.914062 60-60 60zm0 0"/>
    <path fill="#efe2dd" d="m107 482c-16.542969 0-30-13.457031-30-30s13.457031-30 30-30 30 13.457031 30 30-13.457031 30-30 30zm0 0"/>
    <path fill="#ffd396" d="m332 90v272h-332v-272h78.5c-1.199219 3.300781-1.5 11.398438-1.5 15 0 27 4.5 34.800781 52.800781 108.300781l37.199219
    56.699219c15-23.101562 27.597656-42.601562 38.699219-59.402344 46.203125-69.898437 51.300781-78.597656 51.300781-105.597656
    0-10.5-1.5-12-1.5-15zm0 0"/>
    <path fill="#ffb64c" d="m332 90v272h-165v-92c15-23.101562 27.597656-42.601562 38.699219-59.402344 46.203125-69.898437 51.300781-78.597656
    51.300781-105.597656 0-10.5-1.5-12-1.5-15zm0 0"/>
    <path fill="#ff641a" d="m270.800781 90c-7.203125-50.699219-51-90-103.800781-90s-96.597656 39.300781-103.800781 90c-.898438 4.800781-1.199219
    9.898438-1.199219 15 0 32.398438 7.5 43.800781 55.199219 116.398438 3.585937 5.484374-15.421875-23.609376 49.800781
    76.199218l12.601562-19.5c15-23.097656 27.597657-42.296875 38.097657-58.199218 45.898437-69.597657 54.300781-82.199219
    54.300781-114.898438 0-5.101562-.300781-10.199219-1.199219-15zm0 0"/>
    <path fill="#f03800" d="m270.800781 90c-7.203125-50.699219-51-90-103.800781-90v297.601562l12.601562-19.503906c15-23.097656
    27.597657-42.296875 38.097657-58.199218 45.898437-69.597657 54.300781-82.199219 54.300781-114.898438
    0-5.101562-.300781-10.199219-1.199219-15zm0 0"/>
    <path fill="#fff5f5" d="m167 60c-24.902344 0-45 20.097656-45 45 0 24.898438 20.097656 45 45 45s45-20.101562
    45-45c0-24.902344-20.097656-45-45-45zm0 0"/>
    <path fill="#efe2dd" d="m212 105c0 24.898438-20.097656 45-45 45v-90c24.902344 0 45 20.097656 45 45zm0 0"/>
</svg>