<?xml version="1.0" encoding="UTF-8"?>
<!DOCTYPE svg PUBLIC "-//W3C//DTD SVG 1.1//EN" "http://www.w3.org/Graphics/SVG/1.1/DTD/svg11.dtd">
<!-- Creator: CorelDRAW 2018 (64-Bit) -->
<svg xmlns="http://www.w3.org/2000/svg" xml:space="preserve" width="1600px" height="500px" version="1.1" shape-rendering="geometricPrecision" text-rendering="geometricPrecision" image-rendering="optimizeQuality" fill-rule="evenodd" clip-rule="evenodd"
viewBox="0 0 1600 500"
 xmlns:xlink="http://www.w3.org/1999/xlink">
 <g id="Слой_x0020_1">
  <metadata id="CorelCorpID_0Corel-Layer"/>
  <path fill="#2385F5" fill-rule="nonzero" d="M234.47 78.5l-64 0 0 183.14 -50.65 0 0 -183.14 -63.63 0 0 -41.1 178.28 0 0 41.1zm164.67 183.14l-134.51 0 0 -224.24 129.33 0 0 41.1 -78.78 0 0 49.9 73.33 0 0 40.95 -73.33 0 0 51.29 83.96 0 0 41zm197.33 0l-180.62 0 0 -29.09 114.92 -154.05 -106.65 0 0 -41.1 172.03 0 0 28.29 -112.41 154.95 112.73 0 0 41zm230.22 0l-55.04 0 -15.95 -49.91 -79.75 0 -15.79 49.91 -54.77 0 81.67 -224.24 59.88 0 79.75 224.24zm-82.58 -88.66l-24.07 -75.37c-1.76,-5.66 -3.04,-12.38 -3.79,-20.18l-1.22 0c-0.54,6.57 -1.82,13.08 -3.9,19.54l-24.4 76.01 57.38 0zm298.7 88.66l-58.02 0 -34.85 -57.7c-2.62,-4.38 -5.13,-8.28 -7.53,-11.75 -2.41,-3.41 -4.8,-6.35 -7.26,-8.8 -2.45,-2.46 -5.02,-4.33 -7.69,-5.66 -2.66,-1.29 -5.55,-1.92 -8.65,-1.92l-13.61 0 0 85.83 -50.54 0 0 -224.24 80.06 0c54.45,0 81.67,20.34 81.67,60.96 0,7.84 -1.22,15.05 -3.63,21.67 -2.4,6.62 -5.77,12.6 -10.15,17.93 -4.37,5.29 -9.66,9.88 -15.85,13.72 -6.24,3.9 -13.13,6.89 -20.76,9.07l0 0.65c3.36,1.06 6.57,2.72 9.72,5.07 3.15,2.34 6.13,5.06 9.07,8.22 2.94,3.15 5.71,6.51 8.38,10.08 2.67,3.58 5.07,7.1 7.26,10.57l42.38 66.3zm-137.61 -186.4l0 62.4 21.89 0c10.83,0 19.53,-3.15 26.1,-9.39 6.67,-6.35 10.04,-14.26 10.04,-23.59 0,-19.65 -11.75,-29.42 -35.23,-29.42l-22.8 0zm209.08 186.4l-50.55 0 0 -224.24 50.55 0 0 224.24zm233.74 -97.1c0,67.31 -31.38,100.99 -94.1,100.99 -60.9,0 -91.33,-32.88 -91.33,-98.64l0 -129.49 50.66 0 0 130.08c0,36.3 14.19,54.45 42.54,54.45 27.81,0 41.74,-17.51 41.74,-52.58l0 -131.95 50.49 0 0 127.14zm38.49 88.5l0 -50.06c9.07,7.63 18.95,13.34 29.57,17.13 10.62,3.79 21.35,5.71 32.18,5.71 6.41,0 11.96,-0.59 16.66,-1.71 4.75,-1.17 8.7,-2.72 11.9,-4.8 3.2,-2.03 5.56,-4.43 7.1,-7.15 1.6,-2.78 2.35,-5.76 2.35,-9.03 0,-4.37 -1.23,-8.26 -3.73,-11.68 -2.52,-3.48 -5.93,-6.68 -10.26,-9.56 -4.32,-2.93 -9.45,-5.76 -15.42,-8.43 -5.92,-2.73 -12.33,-5.5 -19.22,-8.33 -17.5,-7.26 -30.58,-16.17 -39.18,-26.74 -8.59,-10.52 -12.86,-23.22 -12.86,-38.11 0,-11.69 2.29,-21.72 6.99,-30.11 4.7,-8.43 11.11,-15.32 19.16,-20.76 8.12,-5.39 17.46,-9.39 28.08,-11.96 10.62,-2.56 21.89,-3.84 33.79,-3.84 11.69,0 22.04,0.75 31.07,2.13 8.96,1.4 17.29,3.58 24.92,6.52l0 46.76c-3.79,-2.62 -7.84,-4.92 -12.27,-6.89 -4.44,-1.98 -9.02,-3.63 -13.72,-4.97 -4.65,-1.27 -9.34,-2.24 -13.99,-2.88 -4.64,-0.58 -9.02,-0.91 -13.19,-0.91 -5.76,0 -10.93,0.54 -15.63,1.61 -4.7,1.12 -8.65,2.67 -11.9,4.64 -3.21,1.98 -5.71,4.32 -7.53,7.1 -1.76,2.78 -2.62,5.87 -2.62,9.29 0,3.79 0.96,7.15 2.94,10.08 1.97,2.99 4.8,5.82 8.49,8.49 3.63,2.62 8.06,5.24 13.29,7.79 5.17,2.57 11.1,5.19 17.66,7.9 8.98,3.74 16.98,7.74 24.13,11.96 7.16,4.22 13.29,9.02 18.37,14.31 5.12,5.33 9.02,11.42 11.74,18.25 2.72,6.78 4.05,14.73 4.05,23.81 0,12.54 -2.35,23 -7.09,31.54 -4.75,8.49 -11.16,15.38 -19.33,20.61 -8.11,5.28 -17.56,9.07 -28.34,11.36 -10.83,2.3 -22.21,3.42 -34.22,3.42 -12.27,0 -23.97,-1.01 -35.06,-3.09 -11.11,-2.08 -20.77,-5.24 -28.88,-9.4z"/>
  <path fill="#353534" fill-rule="nonzero" d="M104.05 436.37c-0.54,4.12 -3.18,6.18 -7.92,6.18 -6.04,0 -9.05,-3.78 -9.05,-11.34 0,-12.22 0.75,-22.68 2.26,-31.36 1.2,-6.76 1.82,-13.39 1.82,-19.92 0,-1.56 0.56,-2.87 1.72,-3.93 1.15,-1.05 2.76,-1.58 4.83,-1.58 6.91,0 10.35,3.62 10.35,10.91 0,2.36 -1.2,8.37 -3.65,18.06 -1.47,5.75 -2.22,9.93 -2.22,12.53 13.18,-25.1 25.06,-37.67 35.65,-37.67 4.29,0 7.73,1.49 10.32,4.44 2.6,2.97 3.96,9.52 4.06,19.68 0.02,9.27 0.59,13.92 1.65,13.92 0.83,0 3.7,-4.51 8.63,-13.51 5.47,-9.96 10.16,-16.53 14.05,-19.72 3.89,-3.22 8,-4.81 12.26,-4.81 5.12,0 8.82,1.92 11.13,5.73 2.31,3.83 3.91,10.28 4.83,19.35 0.69,7.18 1.63,12.63 2.81,16.31 1.16,3.67 3.18,6.13 6.04,7.31 2.31,0.97 3.44,2.4 3.44,4.32 0,1.72 -1.3,3.46 -3.94,5.2 -2.62,1.72 -5.28,2.6 -7.99,2.6 -4.72,0 -8.37,-2 -11.04,-6.01 -2.64,-4.04 -4.43,-12.1 -5.35,-24.23 -0.49,-5.83 -1.04,-9.7 -1.62,-11.58 -0.57,-1.91 -1.44,-2.87 -2.57,-2.87 -1.02,0 -2.5,1.43 -4.44,4.3 -1.93,2.85 -5.28,8.54 -10.02,17.05 -4.17,7.68 -7.78,13.05 -10.8,16.08 -3.01,3.05 -6.25,4.56 -9.71,4.56 -2.66,0 -5.35,-1 -8.04,-2.99 -2.69,-2 -4.15,-9.27 -4.39,-21.78 -0.23,-11.16 -1.06,-16.73 -2.5,-16.73 -1.93,0 -6.57,4.96 -13.93,14.87 -7.38,9.92 -12.92,18.79 -16.67,26.63zm189.89 -31.79c-0.73,9.72 -2.02,19.14 -3.89,28.29 -1.86,9.13 -4.62,17.42 -8.23,24.86 -3.6,7.43 -7.49,12.5 -11.67,15.21 -4.17,2.7 -9.12,4.03 -14.87,4.05 -6.18,-0.02 -12.1,-1.02 -17.76,-3.07l0.07 0c-4.88,-1.76 -9.14,-4.12 -12.75,-7.08 -3.61,-2.95 -5.42,-5.45 -5.42,-7.5 0,-1.88 0.54,-3.38 1.62,-4.5 1.09,-1.11 2.5,-1.68 4.25,-1.68 1.53,0 2.78,0.57 3.79,1.68 5.9,6.61 14.48,9.91 25.7,9.91 4.55,0 8.96,-4.14 13.21,-12.43 4.22,-8.27 6.9,-18.2 8.01,-29.81 -14.24,9.77 -25.2,14.64 -32.89,14.64 -4.97,0 -8.91,-1.72 -11.81,-5.16 -2.9,-3.44 -4.36,-7.58 -4.36,-12.41 0,-4.85 1.32,-11.87 3.91,-21.08 2.59,-9.22 4.81,-14.93 6.63,-17.16 1.81,-2.21 4.78,-3.32 8.89,-3.32 2.19,0 3.91,0.82 5.09,2.48 1.2,1.66 1.81,3.5 1.81,5.49 0,0.59 -1.67,3.99 -4.97,10.13 -4.06,7.51 -6.09,14 -6.09,19.43 0,2.81 0.45,4.93 1.35,6.41 0.9,1.45 1.84,2.17 2.81,2.17 2.19,0 4.88,-0.57 8.03,-1.72 3.16,-1.17 6.87,-3.17 11.13,-6.04 4.25,-2.87 7.01,-5.04 8.25,-6.51 1.23,-1.47 2.22,-3.38 2.98,-5.73 0.73,-2.34 1.29,-7.48 1.72,-15.44 0.23,-4.65 0.49,-7.56 0.8,-8.76 0.28,-1.19 1.11,-2.3 2.45,-3.3 1.32,-1 3.14,-1.49 5.38,-1.49 3.04,0 5.18,0.55 6.46,1.67 1.27,1.13 1.91,3.77 1.91,7.93l-1.54 19.84zm122.04 15.29c-11.93,14.68 -23.91,22.03 -35.98,22.03 -4.88,0 -8.82,-1.68 -11.81,-5.02 -3,-3.33 -4.48,-7.59 -4.48,-12.75 0,-10.42 4.9,-20.8 14.74,-31.12 9.83,-10.32 19.78,-15.48 29.87,-15.48 5.8,0 9.92,1.33 12.38,3.95 3.44,-13.1 5.49,-21.31 6.13,-24.58 1.39,-6.09 2.54,-10.12 3.46,-12.11 0.92,-2 2.31,-3.56 4.22,-4.66 1.89,-1.09 3.52,-1.64 4.91,-1.64 2.33,0 4.12,0.84 5.37,2.52 1.25,1.68 1.86,3.78 1.86,6.34 0,1.13 -1.01,4.34 -3.04,9.67 -3.3,8.64 -6.39,19.08 -9.22,31.3 -2.82,12.24 -4.24,21.99 -4.24,29.22 0,6.92 1.75,10.38 5.26,10.38 1.79,0 3.7,-0.41 5.73,-1.25 2.03,-0.82 3.44,-1.21 4.26,-1.21 2.27,0 3.4,1.15 3.4,3.42 0,2.76 -2.29,5.5 -6.88,8.25 -4.58,2.74 -8.92,4.09 -13.02,4.09 -4.41,0 -7.83,-2.04 -10.21,-6.16 -2.4,-4.11 -3.3,-9.19 -2.71,-15.19zm-7.66 -30.75c-6.04,0 -12.33,3.99 -18.89,11.98 -6.55,8 -9.85,15.33 -9.85,21.96 0,3.87 1.67,5.82 4.97,5.82 5.64,0 12.33,-4.34 20.11,-13.02 7.78,-8.68 11.67,-15.54 11.67,-20.58 0,-1.51 -0.73,-2.93 -2.21,-4.22 -1.46,-1.31 -3.4,-1.94 -5.8,-1.94zm69.36 21.05l1.16 -1.93c5.59,-9.72 11.58,-17.61 17.99,-23.67 6.43,-6.05 12.71,-9.09 18.83,-9.09 4.7,0 8.54,1.13 11.51,3.38 2.97,2.23 4.46,4.9 4.46,7.97 0,1.92 -0.52,3.58 -1.54,4.95 -1.01,1.37 -2.4,2.07 -4.22,2.07 -2.85,0 -5.44,-1.03 -7.8,-3.05 -1.65,-1.33 -2.97,-1.99 -3.94,-1.99 -3.44,0 -9.22,4.65 -17.33,13.97 -8.11,9.33 -12.99,19.79 -14.64,31.44 -0.52,3.36 -1.63,5.69 -3.39,7.05 -1.75,1.32 -4.11,2 -7.1,2 -3.18,0 -5.45,-1.58 -6.79,-4.71 -1.32,-3.13 -1.98,-8.27 -1.98,-15.37 0,-2.93 0.07,-6.86 0.26,-11.84 0.19,-4.67 0.73,-10.38 1.6,-17.13 0.21,-1.76 0.38,-3.16 0.47,-4.16 0.43,-3.91 0.9,-6.59 1.42,-8.07 0.54,-1.45 1.76,-2.82 3.7,-4.09 1.93,-1.29 4.08,-1.93 6.41,-1.93 2.5,0 4.39,0.62 5.69,1.87 1.27,1.23 1.93,2.6 1.93,4.07 0,1.89 -1.04,5.78 -3.11,11.69 -0.74,2.05 -1.37,4.49 -1.87,7.33l-1.72 9.24zm117 9.11c0,4.15 -4.04,9.13 -12.1,14.9 -8.04,5.77 -17.14,8.68 -27.28,8.68 -7.78,0 -13.91,-2.13 -18.37,-6.39 -4.48,-4.25 -6.69,-10.19 -6.69,-17.79 0,-11.2 4.55,-21.7 13.67,-31.48 9.13,-9.81 18.86,-14.7 29.21,-14.7 5.17,0 9.32,1.41 12.43,4.25 3.14,2.85 4.72,6.23 4.72,10.14 0,6.96 -3.85,13.59 -11.56,19.88 -7.68,6.3 -17.54,10.64 -29.56,13.06 -1.37,0.26 -2.06,0.98 -2.06,2.15 0,1.92 0.97,3.75 2.93,5.48 1.96,1.75 4.57,2.63 7.85,2.63 9.24,0 18.44,-4.16 27.56,-12.43 1.75,-1.6 3.44,-2.4 5.1,-2.4 2.78,0 4.15,1.34 4.15,4.02zm-46.36 -10.61c7.29,-1.29 13.7,-3.99 19.24,-8.11 5.56,-4.11 8.32,-7.86 8.32,-11.22 0,-1.31 -0.42,-2.41 -1.27,-3.31 -0.85,-0.9 -1.93,-1.35 -3.28,-1.35 -4,0 -8.44,2.56 -13.34,7.67 -4.88,5.12 -8.09,10.55 -9.67,16.32zm105.13 11.16c-12.12,13.86 -23.81,20.8 -35.08,20.8 -4.15,0 -7.73,-1.41 -10.7,-4.26 -3,-2.84 -4.51,-6.45 -4.51,-10.85 0,-10.6 5.45,-21.89 16.32,-33.86 10.84,-11.98 21.81,-17.96 32.86,-17.96 5.62,0 9.32,2.46 11.06,7.37 5.28,0 7.95,1.76 7.95,5.29 0,1.67 -0.52,4.7 -1.53,9.11 -1.84,8.23 -2.76,14.82 -2.76,19.73 0,5.12 0.4,8.72 1.2,10.79 0.83,2.09 1.39,3.44 1.77,4.1 0.37,0.63 1.48,1.31 3.32,2.02 1.84,0.76 2.76,1.83 2.76,3.18 0,2.04 -1.18,3.74 -3.56,5.09 -2.38,1.38 -4.86,2.05 -7.42,2.05 -8.66,0 -12.55,-7.53 -11.68,-22.6zm-4.15 -33.29c-4.64,0 -10.7,4.46 -18.13,13.39 -7.42,8.95 -11.15,16.52 -11.15,22.76 0,3.28 0.78,4.92 2.36,4.92 5.42,0 12.12,-4.18 20.06,-12.55 7.95,-8.39 11.91,-15.7 11.91,-21.99 0,-2.01 -0.52,-3.58 -1.56,-4.77 -1.03,-1.19 -2.19,-1.76 -3.49,-1.76zm57.82 49.83c-0.55,4.12 -3.19,6.18 -7.93,6.18 -6.03,0 -9.05,-3.78 -9.05,-11.34 0,-12.22 0.76,-22.68 2.26,-31.36 1.21,-6.76 1.82,-13.39 1.82,-19.92 0,-1.56 0.57,-2.87 1.72,-3.93 1.16,-1.05 2.76,-1.58 4.83,-1.58 6.91,0 10.35,3.62 10.35,10.91 0,2.36 -1.2,8.37 -3.65,18.06 -1.46,5.75 -2.22,9.93 -2.22,12.53 13.18,-25.1 25.07,-37.67 35.65,-37.67 4.29,0 7.74,1.49 10.33,4.44 2.59,2.97 3.96,9.52 4.06,19.68 0.02,9.27 0.58,13.92 1.65,13.92 0.82,0 3.7,-4.51 8.62,-13.51 5.47,-9.96 10.17,-16.53 14.06,-19.72 3.89,-3.22 7.99,-4.81 12.26,-4.81 5.11,0 8.81,1.92 11.12,5.73 2.32,3.83 3.92,10.28 4.84,19.35 0.68,7.18 1.63,12.63 2.8,16.31 1.16,3.67 3.19,6.13 6.04,7.31 2.31,0.97 3.44,2.4 3.44,4.32 0,1.72 -1.29,3.46 -3.93,5.2 -2.62,1.72 -5.28,2.6 -8,2.6 -4.71,0 -8.37,-2 -11.03,-6.01 -2.64,-4.04 -4.43,-12.1 -5.35,-24.23 -0.5,-5.83 -1.04,-9.7 -1.63,-11.58 -0.57,-1.91 -1.44,-2.87 -2.57,-2.87 -1.02,0 -2.5,1.43 -4.43,4.3 -1.94,2.85 -5.28,8.54 -10.02,17.05 -4.18,7.68 -7.79,13.05 -10.8,16.08 -3.02,3.05 -6.25,4.56 -9.72,4.56 -2.66,0 -5.35,-1 -8.03,-2.99 -2.69,-2 -4.15,-9.27 -4.39,-21.78 -0.24,-11.16 -1.06,-16.73 -2.5,-16.73 -1.93,0 -6.58,4.96 -13.94,14.87 -7.37,9.92 -12.91,18.79 -16.66,26.63zm155.77 -11.69c-0.19,-2.17 -4.15,-4.81 -11.88,-7.92 -9.48,-3.95 -15.54,-7.37 -18.16,-10.22 -2.64,-2.86 -3.93,-5.98 -3.93,-9.33 0,-7.09 4.55,-13.27 13.7,-18.57 9.14,-5.31 17.68,-7.95 25.6,-7.95 7.78,0 11.67,2.95 11.67,8.83 0,1.55 -0.89,2.94 -2.66,4.19 -1.77,1.23 -3.28,1.87 -4.53,1.87 -0.49,0 -1.41,-0.29 -2.69,-0.84 -1.29,-0.57 -2.28,-0.84 -2.97,-0.84 -4.1,0 -8.6,1.19 -13.53,3.58 -4.93,2.42 -7.4,5.2 -7.4,8.42 0,1.55 0.87,3.05 2.61,4.52 1.77,1.45 5.33,3.28 10.73,5.49 7.95,3.27 13.2,6.24 15.73,8.86 2.54,2.64 3.82,5.57 3.82,8.76 0,5.84 -4.55,10.71 -13.65,14.62 -9.11,3.89 -19.32,5.84 -30.63,5.84 -8.35,0 -12.52,-2.62 -12.52,-7.86 0,-1.91 0.87,-3.55 2.64,-4.92 1.74,-1.35 3.7,-2.03 5.87,-2.03 0.87,0 2.22,0.27 4.08,0.84 1.84,0.6 3.53,0.88 5.09,0.88 4.34,0 8.87,-0.59 13.63,-1.77 4.74,-1.21 7.87,-2.69 9.38,-4.45zm102 11.69c-0.54,4.12 -3.19,6.18 -7.92,6.18 -6.04,0 -9.06,-3.78 -9.06,-11.34 0,-12.22 0.76,-22.68 2.26,-31.36 1.21,-6.76 1.82,-13.39 1.82,-19.92 0,-1.56 0.57,-2.87 1.72,-3.93 1.16,-1.05 2.76,-1.58 4.84,-1.58 6.9,0 10.35,3.62 10.35,10.91 0,2.36 -1.21,8.37 -3.66,18.06 -1.46,5.75 -2.21,9.93 -2.21,12.53 13.17,-25.1 25.06,-37.67 35.64,-37.67 4.29,0 7.74,1.49 10.33,4.44 2.59,2.97 3.96,9.52 4.06,19.68 0.02,9.27 0.58,13.92 1.65,13.92 0.82,0 3.7,-4.51 8.63,-13.51 5.46,-9.96 10.16,-16.53 14.05,-19.72 3.89,-3.22 7.99,-4.81 12.26,-4.81 5.12,0 8.82,1.92 11.13,5.73 2.31,3.83 3.91,10.28 4.83,19.35 0.68,7.18 1.63,12.63 2.81,16.31 1.15,3.67 3.18,6.13 6.03,7.31 2.31,0.97 3.44,2.4 3.44,4.32 0,1.72 -1.29,3.46 -3.93,5.2 -2.62,1.72 -5.28,2.6 -8,2.6 -4.71,0 -8.36,-2 -11.03,-6.01 -2.64,-4.04 -4.43,-12.1 -5.35,-24.23 -0.5,-5.83 -1.04,-9.7 -1.63,-11.58 -0.57,-1.91 -1.44,-2.87 -2.57,-2.87 -1.01,0 -2.5,1.43 -4.43,4.3 -1.93,2.85 -5.28,8.54 -10.02,17.05 -4.17,7.68 -7.78,13.05 -10.8,16.08 -3.02,3.05 -6.25,4.56 -9.72,4.56 -2.66,0 -5.35,-1 -8.03,-2.99 -2.69,-2 -4.15,-9.27 -4.39,-21.78 -0.24,-11.16 -1.06,-16.73 -2.5,-16.73 -1.93,0 -6.58,4.96 -13.93,14.87 -7.38,9.92 -12.92,18.79 -16.67,26.63zm189.89 -31.79c-0.73,9.72 -2.03,19.14 -3.89,28.29 -1.86,9.13 -4.62,17.42 -8.23,24.86 -3.61,7.43 -7.5,12.5 -11.67,15.21 -4.17,2.7 -9.12,4.03 -14.88,4.05 -6.17,-0.02 -12.09,-1.02 -17.75,-3.07l0.07 0c-4.88,-1.76 -9.15,-4.12 -12.76,-7.08 -3.6,-2.95 -5.42,-5.45 -5.42,-7.5 0,-1.88 0.54,-3.38 1.63,-4.5 1.08,-1.11 2.5,-1.68 4.24,-1.68 1.53,0 2.78,0.57 3.8,1.68 5.89,6.61 14.48,9.91 25.7,9.91 4.55,0 8.96,-4.14 13.2,-12.43 4.22,-8.27 6.91,-18.2 8.02,-29.81 -14.24,9.77 -25.21,14.64 -32.89,14.64 -4.98,0 -8.92,-1.72 -11.82,-5.16 -2.89,-3.44 -4.36,-7.58 -4.36,-12.41 0,-4.85 1.32,-11.87 3.92,-21.08 2.59,-9.22 4.81,-14.93 6.62,-17.16 1.82,-2.21 4.79,-3.32 8.89,-3.32 2.19,0 3.92,0.82 5.09,2.48 1.21,1.66 1.82,3.5 1.82,5.49 0,0.59 -1.67,3.99 -4.98,10.13 -4.05,7.51 -6.08,14 -6.08,19.43 0,2.81 0.45,4.93 1.35,6.41 0.89,1.45 1.83,2.17 2.8,2.17 2.19,0 4.88,-0.57 8.04,-1.72 3.16,-1.17 6.86,-3.17 11.13,-6.04 4.24,-2.87 7,-5.04 8.25,-6.51 1.23,-1.47 2.22,-3.38 2.97,-5.73 0.73,-2.34 1.3,-7.48 1.72,-15.44 0.24,-4.65 0.5,-7.56 0.8,-8.76 0.29,-1.19 1.11,-2.3 2.46,-3.3 1.32,-1 3.13,-1.49 5.37,-1.49 3.04,0 5.19,0.55 6.46,1.67 1.27,1.13 1.91,3.77 1.91,7.93l-1.53 19.84zm129.02 -2.4c-0.45,0.64 -3.97,6.96 -10.5,18.96 -0.56,1.04 -0.87,1.62 -0.96,1.74 -7.83,13.72 -13.87,20.58 -18.11,20.58 -6.63,0 -12.43,-7.15 -17.4,-21.46 -4.98,-14.29 -7.45,-26.19 -7.45,-35.71 0,-3.44 0.92,-6.22 2.78,-8.33 1.86,-2.13 4.53,-3.19 7.99,-3.19 2.15,0 4.08,0.82 5.76,2.43 1.69,1.62 2.52,3.18 2.52,4.65l-0.61 7.92c-0.19,2.4 -0.29,4.8 -0.29,7.19 0,4.24 1.02,9.87 3.04,16.89 2.03,7.02 3.47,10.52 4.3,10.52 0.59,0 2.92,-3.56 6.98,-10.66 5.28,-9.32 9.57,-16.36 12.84,-21.13l-0.07 0c4.6,-7.6 8.68,-12.57 12.22,-14.93 2.99,0.29 5.4,1.07 7.21,2.34 1.82,1.29 2.74,2.78 2.74,4.5 0,1.35 -0.07,2.36 -0.22,2.99 -0.19,0.7 -0.25,1.31 -0.25,1.86 0,12.08 3.84,22.93 11.52,32.58 0.5,0.45 0.95,0.18 1.35,-0.78 0.37,-0.96 1.34,-3.91 2.87,-8.89 2.81,-9.19 5.97,-17.19 9.53,-24.01 3.54,-6.82 6.44,-11.04 8.7,-12.69 2.26,-1.64 4.81,-2.46 7.66,-2.46 1.79,0 3.35,0.59 4.67,1.78 1.32,1.17 1.96,2.46 1.96,3.87 0,1.68 -0.4,2.99 -1.23,3.95 -5.94,6.88 -11.22,16.4 -15.82,28.56 -4.74,12.59 -8.04,20.29 -9.88,23.09 -1.84,2.79 -3.42,4.2 -4.69,4.2 -4.29,0 -7.8,-0.69 -10.54,-2.07 -2.73,-1.39 -5.4,-3.95 -7.94,-7.71 -2.57,-3.77 -4.89,-8.5 -6.96,-14.21 -2.05,-5.73 -3.3,-9.85 -3.72,-12.37zm115.9 17.65c-12.12,13.86 -23.81,20.8 -35.08,20.8 -4.15,0 -7.73,-1.41 -10.71,-4.26 -2.99,-2.84 -4.5,-6.45 -4.5,-10.85 0,-10.6 5.45,-21.89 16.32,-33.86 10.84,-11.98 21.81,-17.96 32.86,-17.96 5.62,0 9.32,2.46 11.06,7.37 5.28,0 7.95,1.76 7.95,5.29 0,1.67 -0.52,4.7 -1.53,9.11 -1.84,8.23 -2.76,14.82 -2.76,19.73 0,5.12 0.4,8.72 1.2,10.79 0.83,2.09 1.39,3.44 1.77,4.1 0.37,0.63 1.48,1.31 3.32,2.02 1.84,0.76 2.76,1.83 2.76,3.18 0,2.04 -1.18,3.74 -3.56,5.09 -2.38,1.38 -4.86,2.05 -7.43,2.05 -8.65,0 -12.54,-7.53 -11.67,-22.6zm-4.15 -33.29c-4.64,0 -10.7,4.46 -18.13,13.39 -7.42,8.95 -11.15,16.52 -11.15,22.76 0,3.28 0.78,4.92 2.36,4.92 5.42,0 12.12,-4.18 20.06,-12.55 7.95,-8.39 11.91,-15.7 11.91,-21.99 0,-2.01 -0.52,-3.58 -1.56,-4.77 -1.03,-1.19 -2.19,-1.76 -3.49,-1.76zm106.24 18.04c-0.73,9.72 -2.02,19.14 -3.89,28.29 -1.86,9.13 -4.62,17.42 -8.23,24.86 -3.6,7.43 -7.49,12.5 -11.66,15.21 -4.18,2.7 -9.13,4.03 -14.88,4.05 -6.18,-0.02 -12.1,-1.02 -17.76,-3.07l0.07 0c-4.88,-1.76 -9.14,-4.12 -12.75,-7.08 -3.61,-2.95 -5.43,-5.45 -5.43,-7.5 0,-1.88 0.55,-3.38 1.63,-4.5 1.09,-1.11 2.5,-1.68 4.25,-1.68 1.53,0 2.78,0.57 3.79,1.68 5.9,6.61 14.48,9.91 25.7,9.91 4.55,0 8.96,-4.14 13.21,-12.43 4.22,-8.27 6.9,-18.2 8.01,-29.81 -14.24,9.77 -25.2,14.64 -32.89,14.64 -4.97,0 -8.91,-1.72 -11.81,-5.16 -2.9,-3.44 -4.36,-7.58 -4.36,-12.41 0,-4.85 1.32,-11.87 3.91,-21.08 2.59,-9.22 4.81,-14.93 6.63,-17.16 1.81,-2.21 4.78,-3.32 8.89,-3.32 2.19,0 3.91,0.82 5.09,2.48 1.2,1.66 1.81,3.5 1.81,5.49 0,0.59 -1.67,3.99 -4.97,10.13 -4.06,7.51 -6.09,14 -6.09,19.43 0,2.81 0.45,4.93 1.35,6.41 0.9,1.45 1.84,2.17 2.81,2.17 2.19,0 4.88,-0.57 8.04,-1.72 3.15,-1.17 6.86,-3.17 11.12,-6.04 4.25,-2.87 7.01,-5.04 8.25,-6.51 1.23,-1.47 2.22,-3.38 2.98,-5.73 0.73,-2.34 1.29,-7.48 1.72,-15.44 0.23,-4.65 0.49,-7.56 0.8,-8.76 0.28,-1.19 1.11,-2.3 2.45,-3.3 1.32,-1 3.14,-1.49 5.38,-1.49 3.04,0 5.18,0.55 6.46,1.67 1.27,1.13 1.91,3.77 1.91,7.93l-1.54 19.84z"/>
 </g>
</svg>
